productId,product_name,price,sale_price,Code
DB-SG-G01,Lick'em Cat Brush,24.99,19.99,A
DC-SG-G02,Nicolas Cage Sequin Pillow,39.99,24.99,B
FS-SG-G03,Bacon Strips Bandages,24.99,16.99,C
WC-SH-G04,Goats in Trees 18-Month Calendar,24.99,19.99,D
WC-SH-T02,Tanned Skunk Pelt,9.99,6.99,E
PZ-SG-G05,Inflatable Unicorn Horn for Squirrels,4.99,1.99,F
CU-PG-G06,Yodelling Pickle Toy,19.99,16.99,G
MB-AG-G07,Dehydrated Water 16Oz Bottle,39.99,24.99,H
MB-AG-T01,Pooping Pooches Dog Calendar,9.99,6.99,I
FI-AG-G08,Coronavirus Ice Cube Mold Tray,39.99,24.99,J
BS-AG-G09,Man Bun Visor,24.99,19.99,K
SC-MG-G10,Emergency Beard Guards,19.99,16.99,L
WC-SH-A01,Sushi Scented Face Mask,5.99,2.99,M
WC-SH-A02,Inflatable Toupee,3.99,1.99,N
SF-BVS-G01,Internal Organs Swimsuit,26.99,21.99,O 
SF-BVS-01,Runny Nose Soap Dispenser,49.99,41.99,P

